{
  "ID": "8cf1b1de-69e7-4698-a17f-dd11fe3ef230",
  "Version": "3.10.0.0",
  "Name": "LevelMenuScense",
  "Content": {
    "Content": {
      "Animation": {
        "Duration": 0,
        "Speed": 1.0,
        "Timelines": [],
        "ctype": "TimelineActionData"
      },
      "AnimationList": [],
      "ObjectData": {
        "Tag": 18,
        "Children": [
          {
            "FileData": {
              "Type": "Normal",
              "Path": "ResMenuLevel/menu_level.jpg",
              "Plist": ""
            },
            "BlendFunc": {
              "Src": 770,
              "Dst": 771
            },
            "AnchorPoint": {
              "ScaleX": 0.5,
              "ScaleY": 0.5
            },
            "Position": {
              "X": 800.0,
              "Y": 450.0
            },
            "Scale": {
              "ScaleX": 1.0,
              "ScaleY": 1.0
            },
            "CColor": {},
            "IconVisible": false,
            "PrePosition": {
              "X": 0.5,
              "Y": 0.5
            },
            "PreSize": {
              "X": 1.0,
              "Y": 1.0
            },
            "HorizontalEdge": "BothEdge",
            "VerticalEdge": "BothEdge",
            "Tag": 19,
            "ActionTag": 2104734636,
            "Size": {
              "X": 1600.0,
              "Y": 900.0
            },
            "Name": "menu_level_1",
            "ctype": "SpriteObjectData"
          },
          {
            "FontSize": 14,
            "ButtonText": "Button",
            "TextColor": {
              "R": 65,
              "G": 65,
              "B": 70
            },
            "DisabledFileData": {
              "Type": "Default",
              "Path": "Default/Button_Disable.png",
              "Plist": ""
            },
            "PressedFileData": {
              "Type": "Default",
              "Path": "Default/Button_Press.png",
              "Plist": ""
            },
            "NormalFileData": {
              "Type": "Default",
              "Path": "Default/Button_Normal.png",
              "Plist": ""
            },
            "Scale9Enable": true,
            "Scale9OriginX": 15,
            "Scale9OriginY": 11,
            "Scale9Width": 16,
            "Scale9Height": 14,
            "OutlineColor": {
              "G": 0,
              "B": 0
            },
            "ShadowColor": {
              "R": 110,
              "G": 110,
              "B": 110
            },
            "ShadowOffsetX": 2.0,
            "ShadowOffsetY": -2.0,
            "TouchEnable": true,
            "AnchorPoint": {
              "ScaleX": 0.5,
              "ScaleY": 0.5
            },
            "Position": {
              "X": 1388.171,
              "Y": 278.9876
            },
            "Scale": {
              "ScaleX": 5.154,
              "ScaleY": 1.9367
            },
            "CColor": {},
            "IconVisible": false,
            "PrePosition": {
              "X": 0.8676,
              "Y": 0.31
            },
            "PreSize": {
              "X": 0.0288,
              "Y": 0.04
            },
            "HorizontalEdge": "RightEdge",
            "LeftMargin": 1365.171,
            "RightMargin": 188.829,
            "TopMargin": 603.0124,
            "BottomMargin": 260.9876,
            "Tag": 20,
            "ActionTag": -508514018,
            "Size": {
              "X": 46.0,
              "Y": 36.0
            },
            "Alpha": 0,
            "Name": "btn_mnulevel_guild",
            "ctype": "ButtonObjectData"
          },
          {
            "FontSize": 14,
            "ButtonText": "Button",
            "TextColor": {
              "R": 65,
              "G": 65,
              "B": 70
            },
            "DisabledFileData": {
              "Type": "Default",
              "Path": "Default/Button_Disable.png",
              "Plist": ""
            },
            "PressedFileData": {
              "Type": "Default",
              "Path": "Default/Button_Press.png",
              "Plist": ""
            },
            "NormalFileData": {
              "Type": "Default",
              "Path": "Default/Button_Normal.png",
              "Plist": ""
            },
            "Scale9Enable": true,
            "Scale9OriginX": 15,
            "Scale9OriginY": 11,
            "Scale9Width": 16,
            "Scale9Height": 14,
            "OutlineColor": {
              "G": 0,
              "B": 0
            },
            "ShadowColor": {
              "R": 110,
              "G": 110,
              "B": 110
            },
            "ShadowOffsetX": 2.0,
            "ShadowOffsetY": -2.0,
            "TouchEnable": true,
            "AnchorPoint": {
              "ScaleX": 0.5,
              "ScaleY": 0.5
            },
            "Position": {
              "X": 1388.1436,
              "Y": 153.5316
            },
            "Scale": {
              "ScaleX": 5.0319,
              "ScaleY": 1.9367
            },
            "CColor": {},
            "IconVisible": false,
            "PrePosition": {
              "X": 0.8676,
              "Y": 0.1706
            },
            "PreSize": {
              "X": 0.0288,
              "Y": 0.04
            },
            "HorizontalEdge": "RightEdge",
            "LeftMargin": 1365.1436,
            "RightMargin": 188.8564,
            "TopMargin": 728.4684,
            "BottomMargin": 135.5316,
            "Tag": 21,
            "ActionTag": 1818446446,
            "Size": {
              "X": 46.0,
              "Y": 36.0
            },
            "Alpha": 0,
            "Name": "btn_mnulevel_exit",
            "ctype": "ButtonObjectData"
          },
          {
            "FileData": {
              "Type": "Normal",
              "Path": "ResMainGame/tile_map.tmx",
              "Plist": ""
            },
            "AnchorPoint": {},
            "Position": {
              "X": 22.56,
              "Y": 92.52
            },
            "Scale": {
              "ScaleX": 1.0676,
              "ScaleY": 1.0182
            },
            "CColor": {},
            "IconVisible": false,
            "PrePosition": {
              "X": 0.0141,
              "Y": 0.1028
            },
            "PreSize": {
              "X": 0.675,
              "Y": 0.86
            },
            "HorizontalEdge": "BothEdge",
            "VerticalEdge": "BothEdge",
            "LeftMargin": 22.56,
            "RightMargin": 497.4399,
            "TopMargin": 33.48,
            "BottomMargin": 92.52,
            "Tag": 22,
            "Children": [
              {
                "FileData": {
                  "Type": "Normal",
                  "Path": "choose.png",
                  "Plist": ""
                },
                "BlendFunc": {
                  "Src": 1,
                  "Dst": 771
                },
                "AnchorPoint": {
                  "ScaleX": 0.5,
                  "ScaleY": 0.5
                },
                "Position": {
                  "X": 204.0441,
                  "Y": 712.0248
                },
                "Scale": {
                  "ScaleX": 1.11,
                  "ScaleY": 1.11
                },
                "CColor": {},
                "IconVisible": false,
                "PrePosition": {
                  "X": 0.1889,
                  "Y": 0.9199
                },
                "PreSize": {
                  "X": 0.125,
                  "Y": 0.1667
                },
                "LeftMargin": 136.5441,
                "RightMargin": 808.4559,
                "TopMargin": -2.5248,
                "BottomMargin": 647.5248,
                "Tag": 14,
                "ActionTag": 495900112,
                "Size": {
                  "X": 135.0,
                  "Y": 129.0
                },
                "VisibleForFrame": false,
                "Name": "choose",
                "ctype": "SpriteObjectData"
              }
            ],
            "ActionTag": -1793806906,
            "Size": {
              "X": 1080.0,
              "Y": 774.0
            },
            "Name": "title_map",
            "ctype": "GameMapObjectData"
          }
        ],
        "Size": {
          "X": 1600.0,
          "Y": 900.0
        },
        "Name": "Scene",
        "ctype": "SingleNodeObjectData"
      },
      "UsedResources": [
        "choose.png",
        "Default/Button_Disable.png",
        "Default/Button_Normal.png",
        "Default/Button_Press.png",
        "ResMainGame/la.png",
        "ResMainGame/tile_map.tmx",
        "ResMenuLevel/menu_level.jpg"
      ],
      "ctype": "GameFileData"
    }
  },
  "Type": "Scene"
}