{
  "ID": "12aacdbc-5519-4518-aee7-be737994982b",
  "Version": "2.3.3.0",
  "Name": "SceneHome",
  "Content": {
    "Content": {
      "Animation": {
        "Duration": 0,
        "Speed": 1.0,
        "Timelines": [],
        "ctype": "TimelineActionData"
      },
      "AnimationList": [],
      "ObjectData": {
        "Tag": 27,
        "Children": [
          {
            "FileData": {
              "Type": "Normal",
              "Path": "ResHome/menu.jpg",
              "Plist": ""
            },
            "BlendFunc": {
              "Src": 770,
              "Dst": 771
            },
            "AnchorPoint": {},
            "Position": {
              "X": 0.0,
              "Y": 0.0
            },
            "Scale": {
              "ScaleX": 1.0,
              "ScaleY": 1.0
            },
            "CColor": {},
            "IconVisible": false,
            "PrePosition": {
              "X": 0.0,
              "Y": 0.0
            },
            "PreSize": {
              "X": 1.0,
              "Y": 1.0
            },
            "Tag": 28,
            "ActionTag": -763486839,
            "Size": {
              "X": 1600.0,
              "Y": 900.0
            },
            "Name": "menu_1",
            "ctype": "SpriteObjectData"
          },
          {
            "FontSize": 14,
            "ButtonText": "Button",
            "TextColor": {
              "R": 65,
              "G": 65,
              "B": 70
            },
            "DisabledFileData": {
              "Type": "Default",
              "Path": "Default/Button_Disable.png",
              "Plist": ""
            },
            "PressedFileData": {
              "Type": "Default",
              "Path": "Default/Button_Press.png",
              "Plist": ""
            },
            "NormalFileData": {
              "Type": "Default",
              "Path": "Default/Button_Normal.png",
              "Plist": ""
            },
            "Scale9Enable": true,
            "Scale9OriginX": 15,
            "Scale9OriginY": 11,
            "Scale9Width": 16,
            "Scale9Height": 14,
            "OutlineColor": {
              "G": 0,
              "B": 0
            },
            "ShadowColor": {
              "R": 110,
              "G": 110,
              "B": 110
            },
            "ShadowOffsetX": 2.0,
            "ShadowOffsetY": -2.0,
            "TouchEnable": true,
            "AnchorPoint": {
              "ScaleX": 0.5,
              "ScaleY": 0.5
            },
            "Position": {
              "X": 799.7605,
              "Y": 395.5104
            },
            "Scale": {
              "ScaleX": 10.2901,
              "ScaleY": 3.9174
            },
            "CColor": {},
            "IconVisible": false,
            "PrePosition": {
              "X": 0.4999,
              "Y": 0.4395
            },
            "PreSize": {
              "X": 0.0288,
              "Y": 0.04
            },
            "LeftMargin": 776.7605,
            "RightMargin": 777.2395,
            "TopMargin": 486.4896,
            "BottomMargin": 377.5104,
            "Tag": 29,
            "ActionTag": -276862940,
            "Size": {
              "X": 46.0,
              "Y": 36.0
            },
            "Alpha": 0,
            "Name": "btn_bat_dau",
            "ctype": "ButtonObjectData"
          },
          {
            "FontSize": 14,
            "ButtonText": "Button",
            "TextColor": {
              "R": 65,
              "G": 65,
              "B": 70
            },
            "DisabledFileData": {
              "Type": "Default",
              "Path": "Default/Button_Disable.png",
              "Plist": ""
            },
            "PressedFileData": {
              "Type": "Default",
              "Path": "Default/Button_Press.png",
              "Plist": ""
            },
            "NormalFileData": {
              "Type": "Default",
              "Path": "Default/Button_Normal.png",
              "Plist": ""
            },
            "Scale9Enable": true,
            "Scale9OriginX": 15,
            "Scale9OriginY": 11,
            "Scale9Width": 16,
            "Scale9Height": 14,
            "OutlineColor": {
              "G": 0,
              "B": 0
            },
            "ShadowColor": {
              "R": 110,
              "G": 110,
              "B": 110
            },
            "ShadowOffsetX": 2.0,
            "ShadowOffsetY": -2.0,
            "TouchEnable": true,
            "AnchorPoint": {
              "ScaleX": 0.5,
              "ScaleY": 0.5
            },
            "Position": {
              "X": 529.088,
              "Y": 177.2693
            },
            "Scale": {
              "ScaleX": 10.2901,
              "ScaleY": 3.9174
            },
            "CColor": {},
            "IconVisible": false,
            "PrePosition": {
              "X": 0.3307,
              "Y": 0.197
            },
            "PreSize": {
              "X": 0.0288,
              "Y": 0.04
            },
            "LeftMargin": 506.088,
            "RightMargin": 1047.9121,
            "TopMargin": 704.7307,
            "BottomMargin": 159.2693,
            "Tag": 30,
            "ActionTag": 1637724923,
            "Size": {
              "X": 46.0,
              "Y": 36.0
            },
            "Alpha": 0,
            "Name": "btn_gioi_thieu",
            "ctype": "ButtonObjectData"
          },
          {
            "FontSize": 14,
            "ButtonText": "Button",
            "TextColor": {
              "R": 65,
              "G": 65,
              "B": 70
            },
            "DisabledFileData": {
              "Type": "Default",
              "Path": "Default/Button_Disable.png",
              "Plist": ""
            },
            "PressedFileData": {
              "Type": "Default",
              "Path": "Default/Button_Press.png",
              "Plist": ""
            },
            "NormalFileData": {
              "Type": "Default",
              "Path": "Default/Button_Normal.png",
              "Plist": ""
            },
            "Scale9Enable": true,
            "Scale9OriginX": 15,
            "Scale9OriginY": 11,
            "Scale9Width": 16,
            "Scale9Height": 14,
            "OutlineColor": {
              "G": 0,
              "B": 0
            },
            "ShadowColor": {
              "R": 110,
              "G": 110,
              "B": 110
            },
            "ShadowOffsetX": 2.0,
            "ShadowOffsetY": -2.0,
            "TouchEnable": true,
            "AnchorPoint": {
              "ScaleX": 0.5,
              "ScaleY": 0.5
            },
            "Position": {
              "X": 1076.8916,
              "Y": 185.377
            },
            "Scale": {
              "ScaleX": 10.2901,
              "ScaleY": 3.9174
            },
            "CColor": {},
            "IconVisible": false,
            "PrePosition": {
              "X": 0.6731,
              "Y": 0.206
            },
            "PreSize": {
              "X": 0.0288,
              "Y": 0.04
            },
            "LeftMargin": 1053.8916,
            "RightMargin": 500.1084,
            "TopMargin": 696.623,
            "BottomMargin": 167.377,
            "Tag": 31,
            "ActionTag": 2092072994,
            "Size": {
              "X": 46.0,
              "Y": 36.0
            },
            "Alpha": 0,
            "Name": "btn_thoat",
            "ctype": "ButtonObjectData"
          },
          {
            "FileData": {
              "Type": "Normal",
              "Path": "popup_bg.png",
              "Plist": ""
            },
            "BlendFunc": {
              "Src": 770,
              "Dst": 771
            },
            "AnchorPoint": {},
            "Position": {
              "X": 2.5128,
              "Y": 7.6754
            },
            "Scale": {
              "ScaleX": 159.5713,
              "ScaleY": 88.8233
            },
            "CColor": {},
            "IconVisible": false,
            "PrePosition": {
              "X": 0.0016,
              "Y": 0.0085
            },
            "PreSize": {
              "X": 0.0063,
              "Y": 0.0111
            },
            "LeftMargin": 2.5128,
            "RightMargin": 1587.4872,
            "TopMargin": 882.3246,
            "BottomMargin": 7.6754,
            "Tag": 47,
            "ActionTag": -1462675575,
            "Size": {
              "X": 10.0,
              "Y": 10.0
            },
            "VisibleForFrame": false,
            "Alpha": 168,
            "Name": "popup_bg",
            "ctype": "SpriteObjectData"
          },
          {
            "FileData": {
              "Type": "Normal",
              "Path": "ResHome/intro.jpg",
              "Plist": ""
            },
            "BlendFunc": {
              "Src": 770,
              "Dst": 771
            },
            "AnchorPoint": {},
            "Position": {
              "X": 0,
              "Y": 0
            },
            "Scale": {
              "ScaleX": 1,
              "ScaleY": 1
            },
            "CColor": {},
            "IconVisible": false,
            "PrePosition": {
              "X": 0.0011,
              "Y": 0.0744
            },
            "PreSize": {
              "X": 0.9744,
              "Y": 0.8944
            },
            "LeftMargin": 1.811,
            "RightMargin": 39.189,
            "TopMargin": 28.0006,
            "BottomMargin": 66.9994,
            "Tag": 42,
            "Children": [
              {
                "FontSize": 14,
                "ButtonText": "Button",
                "TextColor": {
                  "R": 65,
                  "G": 65,
                  "B": 70
                },
                "DisabledFileData": {
                  "Type": "Default",
                  "Path": "Default/Button_Disable.png",
                  "Plist": ""
                },
                "PressedFileData": {
                  "Type": "Default",
                  "Path": "Default/Button_Press.png",
                  "Plist": ""
                },
                "NormalFileData": {
                  "Type": "Default",
                  "Path": "Default/Button_Normal.png",
                  "Plist": ""
                },
                "Scale9Enable": true,
                "Scale9OriginX": 15,
                "Scale9OriginY": 11,
                "Scale9Width": 16,
                "Scale9Height": 14,
                "OutlineColor": {
                  "G": 0,
                  "B": 0
                },
                "ShadowColor": {
                  "R": 110,
                  "G": 110,
                  "B": 110
                },
                "ShadowOffsetX": 2.0,
                "ShadowOffsetY": -2.0,
                "TouchEnable": true,
                "AnchorPoint": {},
                "Position": {
                  "X": 0.0,
                  "Y": 0.0
                },
                "Scale": {
                  "ScaleX": 33.9227,
                  "ScaleY": 22.443
                },
                "CColor": {},
                "IconVisible": false,
                "PrePosition": {
                  "X": 0.0,
                  "Y": 0.0
                },
                "PreSize": {
                  "X": 0.0295,
                  "Y": 0.0447
                },
                "RightMargin": 1513.0,
                "TopMargin": 769.0,
                "Tag": 43,
                "ActionTag": -634751425,
                "Size": {
                  "X": 46.0,
                  "Y": 36.0
                },
                "Alpha": 0,
                "Name": "btn_intro_ok",
                "ctype": "ButtonObjectData"
              }
            ],
            "ActionTag": -1802827034,
            "Size": {
              "X": 1559.0,
              "Y": 805.0
            },
            "VisibleForFrame": false,
            "Name": "popup_intro",
            "ctype": "SpriteObjectData"
          },
          {
            "FileData": {
              "Type": "Normal",
              "Path": "ResHome/popup_outgame.png",
              "Plist": ""
            },
            "BlendFunc": {
              "Src": 770,
              "Dst": 771
            },
            "AnchorPoint": {
              "ScaleX": 0.5,
              "ScaleY": 0.5
            },
            "Position": {
              "X": 800.0,
              "Y": 450.0
            },
            "Scale": {
              "ScaleX": 1.0,
              "ScaleY": 1.0
            },
            "CColor": {},
            "IconVisible": false,
            "PrePosition": {
              "X": 0.5,
              "Y": 0.5
            },
            "PreSize": {
              "X": 0.3275,
              "Y": 0.4311
            },
            "LeftMargin": 538.0,
            "RightMargin": 538.0,
            "TopMargin": 256.0,
            "BottomMargin": 256.0,
            "Tag": 44,
            "Children": [
              {
                "FontSize": 14,
                "ButtonText": "Button",
                "TextColor": {
                  "R": 65,
                  "G": 65,
                  "B": 70
                },
                "DisabledFileData": {
                  "Type": "Default",
                  "Path": "Default/Button_Disable.png",
                  "Plist": ""
                },
                "PressedFileData": {
                  "Type": "Default",
                  "Path": "Default/Button_Press.png",
                  "Plist": ""
                },
                "NormalFileData": {
                  "Type": "Default",
                  "Path": "Default/Button_Normal.png",
                  "Plist": ""
                },
                "Scale9Enable": true,
                "Scale9OriginX": 15,
                "Scale9OriginY": 11,
                "Scale9Width": 16,
                "Scale9Height": 14,
                "OutlineColor": {
                  "G": 0,
                  "B": 0
                },
                "ShadowColor": {
                  "R": 110,
                  "G": 110,
                  "B": 110
                },
                "ShadowOffsetX": 2.0,
                "ShadowOffsetY": -2.0,
                "TouchEnable": true,
                "AnchorPoint": {
                  "ScaleX": 0.5,
                  "ScaleY": 0.5
                },
                "Position": {
                  "X": 277.0518,
                  "Y": 164.7816
                },
                "Scale": {
                  "ScaleX": 4.779,
                  "ScaleY": 2.006
                },
                "CColor": {},
                "IconVisible": false,
                "PrePosition": {
                  "X": 0.5287,
                  "Y": 0.4247
                },
                "PreSize": {
                  "X": 0.0878,
                  "Y": 0.0928
                },
                "LeftMargin": 254.0518,
                "RightMargin": 223.9482,
                "TopMargin": 205.2184,
                "BottomMargin": 146.7816,
                "Tag": 48,
                "ActionTag": -1857264692,
                "Size": {
                  "X": 46.0,
                  "Y": 36.0
                },
                "Alpha": 0,
                "Name": "btn_exit_yes",
                "ctype": "ButtonObjectData"
              },
              {
                "FontSize": 14,
                "ButtonText": "Button",
                "TextColor": {
                  "R": 65,
                  "G": 65,
                  "B": 70
                },
                "DisabledFileData": {
                  "Type": "Default",
                  "Path": "Default/Button_Disable.png",
                  "Plist": ""
                },
                "PressedFileData": {
                  "Type": "Default",
                  "Path": "Default/Button_Press.png",
                  "Plist": ""
                },
                "NormalFileData": {
                  "Type": "Default",
                  "Path": "Default/Button_Normal.png",
                  "Plist": ""
                },
                "Scale9Enable": true,
                "Scale9OriginX": 15,
                "Scale9OriginY": 11,
                "Scale9Width": 16,
                "Scale9Height": 14,
                "OutlineColor": {
                  "G": 0,
                  "B": 0
                },
                "ShadowColor": {
                  "R": 110,
                  "G": 110,
                  "B": 110
                },
                "ShadowOffsetX": 2.0,
                "ShadowOffsetY": -2.0,
                "TouchEnable": true,
                "AnchorPoint": {
                  "ScaleX": 0.5,
                  "ScaleY": 0.5
                },
                "Position": {
                  "X": 270.7557,
                  "Y": 67.8635
                },
                "Scale": {
                  "ScaleX": 4.779,
                  "ScaleY": 2.006
                },
                "CColor": {},
                "IconVisible": false,
                "PrePosition": {
                  "X": 0.5167,
                  "Y": 0.1749
                },
                "PreSize": {
                  "X": 0.0878,
                  "Y": 0.0928
                },
                "LeftMargin": 247.7557,
                "RightMargin": 230.2443,
                "TopMargin": 302.1365,
                "BottomMargin": 49.8635,
                "Tag": 49,
                "ActionTag": -622352197,
                "Size": {
                  "X": 46.0,
                  "Y": 36.0
                },
                "Alpha": 0,
                "Name": "btn_exit_no",
                "ctype": "ButtonObjectData"
              }
            ],
            "ActionTag": 822824046,
            "Size": {
              "X": 524.0,
              "Y": 388.0
            },
            "VisibleForFrame": false,
            "Name": "popup_exit",
            "ctype": "SpriteObjectData"
          }
        ],
        "Size": {
          "X": 1600.0,
          "Y": 900.0
        },
        "Name": "Scene",
        "ctype": "SingleNodeObjectData"
      },
      "UsedResources": [
        "Default/Button_Disable.png",
        "Default/Button_Normal.png",
        "Default/Button_Press.png",
        "popup_bg.png",
        "ResHome/intro.jpg",
        "ResHome/menu.jpg",
        "ResHome/popup_outgame.png"
      ],
      "ctype": "GameFileData"
    }
  },
  "Type": "Scene"
}